%YAML 1.1
%TAG !u! tag:unity3d.com,2011:
--- !u!114 &11400000
MonoBehaviour:
  m_ObjectHideFlags: 0
  m_PrefabParentObject: {fileID: 0}
  m_PrefabInternal: {fileID: 0}
  m_GameObject: {fileID: 0}
  m_Enabled: 1
  m_EditorHideFlags: 0
  m_Script: {fileID: 11500000, guid: 6fc3cbda5bb854d3ba9ea569007f7831, type: 3}
  m_Name: SniperScriptableObject
  m_EditorClassIdentifier: 
  Health: 1
  Speed: 5
  reloadTime: 3
  fireRate: 0.3
  lineOfSight: 7
  bulletForce: 50
  bulletCount: 10
  bulletCapacity: 10
